{
  "layers": [
    {
      "name": "LayoutView #document",
      "bounds": [800, 600],
      "drawsContent": false,
      "backgroundColor": "#FFFFFF"
    },
    {
      "name": "Scrolling Layer",
      "bounds": [800, 600],
      "drawsContent": false
    },
    {
      "name": "Scrolling Contents Layer",
      "bounds": [800, 600],
      "contentsOpaque": true,
      "backgroundColor": "#FFFFFF",
      "paintInvalidations": [
        {
          "object": "NGPhysicalBoxFragment LayoutNGBlockFlow div id='contentBox'",
          "rect": [8, 50, 402, 402],
          "reason": "geometry"
        },
        {
          "object": "LayoutSVGViewportContainer svg id='gamesBorder'",
          "rect": [45, 85, 328, 330],
          "reason": "paint property change"
        },
        {
          "object": "LayoutSVGViewportContainer svg id='gamesBorder'",
          "rect": [18, 209, 82, 83],
          "reason": "paint property change"
        }
      ]
    }
  ]
}

