{
  "layers": [
    {
      "name": "LayoutView #document",
      "bounds": [800, 600],
      "drawsContent": false,
      "backgroundColor": "#FFFFFF"
    },
    {
      "name": "Scrolling Layer",
      "bounds": [800, 600],
      "drawsContent": false
    },
    {
      "name": "Scrolling Contents Layer",
      "bounds": [800, 600],
      "contentsOpaque": true,
      "backgroundColor": "#FFFFFF",
      "paintInvalidations": [
        {
          "object": "NGPhysicalTextFragment 'Selection is here'",
          "rect": [8, 30, 98, 19],
          "reason": "geometry"
        },
        {
          "object": "InlineTextBox 'PASS'",
          "rect": [10, 10, 35, 18],
          "reason": "appeared"
        },
        {
          "object": "InlineTextBox 'FAIL'",
          "rect": [10, 10, 26, 18],
          "reason": "disappeared"
        },
        {
          "object": "LayoutNGBlockFlow (positioned) DIV id='div'",
          "rect": [8, 288, 10, 20],
          "reason": "geometry"
        }
      ]
    }
  ]
}

