{
  "layers": [
    {
      "name": "LayoutView #document",
      "bounds": [800, 600],
      "drawsContent": false,
      "backgroundColor": "#FFFFFF"
    },
    {
      "name": "Scrolling Layer",
      "bounds": [785, 585],
      "drawsContent": false
    },
    {
      "name": "Scrolling Contents Layer",
      "bounds": [2000, 2000],
      "contentsOpaque": true,
      "backgroundColor": "#FFFFFF",
      "paintInvalidations": [
        {
          "object": "NGPhysicalTextFragment 'Text Text Text Text Text Text Text Text Text Text Text Text Text'",
          "rect": [0, 320, 386, 19],
          "reason": "style change"
        }
      ],
      "transform": 1
    }
  ],
  "transforms": [
    {
      "id": 1,
      "transform": [
        [1, 0, 0, 0],
        [0, 1, 0, 0],
        [0, 0, 1, 0],
        [-200, -200, 0, 1]
      ],
      "flattenInheritedTransform": false
    }
  ]
}

