{
  "layers": [
    {
      "name": "Scrolling background of LayoutView #document",
      "bounds": [800, 600],
      "contentsOpaque": true,
      "backgroundColor": "#FFFFFF"
    },
    {
      "name": "LayoutNGBlockFlow DIV class='scroller'",
      "bounds": [300, 300],
      "drawsContent": false,
      "transform": 1
    },
    {
      "name": "LayoutNGBlockFlow DIV class='scroller'",
      "bounds": [1000, 1000],
      "contentsOpaque": true,
      "backgroundColor": "#C0C0C0",
      "transform": 1
    },
    {
      "name": "HorizontalScrollbar",
      "position": [0, 296],
      "bounds": [296, 4],
      "transform": 1
    },
    {
      "name": "VerticalScrollbar",
      "position": [296, 0],
      "bounds": [4, 296],
      "transform": 1
    }
  ],
  "transforms": [
    {
      "id": 1,
      "transform": [
        [1, 0, 0, 0],
        [0, 1, 0, 0],
        [0, 0, 1, 0],
        [8, 8, 0, 1]
      ]
    }
  ]
}

