{
  "layers": [
    {
      "name": "Scrolling background of LayoutView #document",
      "bounds": [1600, 1200],
      "contentsOpaque": true,
      "backgroundColor": "#FFFFFF"
    },
    {
      "name": "LayoutBlockFlow (positioned) DIV id='composited'",
      "position": [-150, -150],
      "bounds": [500, 500],
      "backgroundColor": "#008000",
      "transform": 1
    }
  ],
  "transforms": [
    {
      "id": 1,
      "transform": [
        [1, 0, 0, 0],
        [0, 1, 0, 0],
        [0, 0, 1, 0],
        [200, 200, 0, 1]
      ]
    }
  ]
}

