{
  "layers": [
    {
      "name": "Scrolling background of LayoutView #document",
      "bounds": [1600, 1200],
      "contentsOpaque": true,
      "backgroundColor": "#FFFFFF"
    },
    {
      "name": "LayoutBlockFlow (positioned) DIV id='composited-layer-to-overlap'",
      "bounds": [200, 200],
      "contentsOpaque": true,
      "backgroundColor": "#0000FF",
      "transform": 1
    }
  ],
  "transforms": [
    {
      "id": 1,
      "transform": [
        [1, 0, 0, 0],
        [0, 1, 0, 0],
        [0, 0, 1, 0],
        [500, 500, 0, 1]
      ]
    }
  ]
}
{
  "layers": [
    {
      "name": "Scrolling background of LayoutView #document",
      "bounds": [1600, 1200],
      "contentsOpaque": true,
      "backgroundColor": "#FFFFFF"
    },
    {
      "name": "LayoutBlockFlow (positioned) DIV id='composited-layer-to-overlap'",
      "bounds": [200, 200],
      "contentsOpaque": true,
      "backgroundColor": "#0000FF",
      "transform": 1
    },
    {
      "name": "LayoutBlockFlow (positioned) DIV id='software-layer-to-promote' class='final-drop-shadow'",
      "position": [200, 200],
      "bounds": [400, 400],
      "backgroundColor": "#000000"
    }
  ],
  "transforms": [
    {
      "id": 1,
      "transform": [
        [1, 0, 0, 0],
        [0, 1, 0, 0],
        [0, 0, 1, 0],
        [500, 500, 0, 1]
      ]
    }
  ]
}

