EDITING DELEGATE: webViewDidChangeSelection:WebViewDidChangeSelectionNotification
EDITING DELEGATE: webViewDidChangeSelection:WebViewDidChangeSelectionNotification
EDITING DELEGATE: webViewDidChange:WebViewDidChangeNotification
layer at (0,0)
  LayoutView at (0,0) size 800x600
layer at (0,0)
  LayoutNGBlockFlow {HTML} at (0,0) size 800x600
    LayoutNGBlockFlow {BODY} at (8,8) size 784x584
      LayoutNGBlockFlow (children-inline) {P} at (0,0) size 784x20
        LayoutText {#text} at (0,0) size 354x19
          text run at (0,0) width 354: "This is an automatic test of copying an image document."
      LayoutNGBlockFlow (children-inline) {P} at (0,36) size 784x40
        LayoutText {#text} at (0,0) size 757x39
          text run at (0,0) width 757: "To perform this test manually, click once in the image frame, choose Edit -> Copy then click in the red box and paste the"
          text run at (0,20) width 355: "image. If the image pastes successfully the test is passed."
      LayoutNGBlockFlow (anonymous, children-inline) at (0,92) size 784x154
        LayoutText {#text} at (0,0) size 0x0
      LayoutNGBlockFlow (children-inline) {DIV} at (0,246) size 784x128 [border: (2px solid #FF0000) (2px solid #FF0000) (2px solid #FF0000) (2px solid #FF0000)]
        LayoutImage {IMG} at (14,14) size 50x100
        LayoutText {#text} at (0,0) size 0x0
layer at (8,100)
  LayoutIFrame {IFRAME} at (0,0) size 304x154 [border: (2px solid #0000FF) (2px solid #0000FF) (2px solid #0000FF) (2px solid #0000FF)]
    layer at (0,0)
      LayoutView at (0,0) size 300x150
    layer at (0,0)
      LayoutNGBlockFlow {HTML} at (0,0) size 300x150
        LayoutNGBlockFlow {BODY} at (0,0) size 300x150
          LayoutImage (block) {IMG} at (0,0) size 50x100
caret: position 1 of child 0 {IMG} of child 7 {DIV} of body
