{
  "layers": [
    {
      "name": "Scrolling background of LayoutView #document",
      "bounds": [2008, 2016],
      "contentsOpaque": true,
      "backgroundColor": "#FFFFFF"
    },
    {
      "name": "LayoutNGBlockFlow (children-inline) DIV id='targetDiv'",
      "bounds": [2000, 2000],
      "transform": 2
    },
    {
      "name": "HorizontalScrollbar",
      "position": [0, 585],
      "bounds": [785, 15],
      "contentsOpaque": true
    },
    {
      "name": "VerticalScrollbar",
      "position": [785, 0],
      "bounds": [15, 585],
      "contentsOpaque": true
    },
    {
      "name": "Scroll corner of LayoutView #document",
      "position": [785, 585],
      "bounds": [15, 15],
      "contentsOpaque": true
    }
  ],
  "transforms": [
    {
      "id": 1,
      "transform": [
        [1, 0, 0, 0],
        [0, 1, 0, 0],
        [0, 0, 1, 0],
        [8, 8, 0, 1]
      ]
    },
    {
      "id": 2,
      "parent": 1,
      "transform": [
        [1, 0, 0, 0],
        [0, 1, 0, 0],
        [0, 0, 1, 0],
        [0, -1000, 0, 1]
      ]
    }
  ]
}

